{
    "name": "Conference",
    "alias": "conference",
    "description": "",
    "keywords": [],
    "order": 0,
    "providers": [
        "Modules\\Conference\\Providers\\ConferenceServiceProvider"
    ],
    "aliases": {},
    "files": [],
    "requires": []
}
